{
	"controllers": [
		{
			"type": "Gamepad",
			"name": "Bongos",
			"axisNames": [],
			"buttonNames": [
				"BottomRight",
				"TopRight",
				"TopLeft",
				"BottomLeft",
				"None",
				"None",
				"None",
				"Start"
			]
		},
		{
			"type":"Gamepad",
			"name":"BalanceBoard",
			"axisNames":["X","Y"]
		}
	],
	"in": [
		{
			"type":"axis",
			"name":"X",
			"controller":"BalanceBoard",
			"out":"LX"
		},
		{
			"type":"axis",
			"name":"Y",
			"controller":"BalanceBoard",
			"out":"LY"
		},
		{
			"type": "button",
			"name":"Start",
			"controller": "Bongos",
			"out": "Start"
		},
		{
			"type": "button",
			"name": "TopLeft",
			"controller": "Bongos",
			"out": "A"
		},
		{
			"type": "button",
			"name": "BottomLeft",
			"controller": "Bongos",
			"out": "A"
		},
		{
			"type": "button",
			"name": "TopRight",
			"controller": "Bongos",
			"out": "B"
		},
		{
			"type": "button",
			"name": "BottomRight",
			"controller": "Bongos",
			"out": "B"
		}
	],
	"out": [
		{
			"type": "axis",
			"name": "LX"
		},
		{
			"type": "axis",
			"name": "LY"
		},
		{
			"type": "button",
			"name": "A"
		},
		{
			"type": "button",
			"name": "B"
		},
		{
			"type": "button",
			"name": "Start"
		}
	]
}